%!PS-Adobe-3.0 EPSF-3.0
%%Title: Taupunkt.fig
%%Creator: fig2dev Version 3.2 Patchlevel 5d
%%CreationDate: Sun Nov 27 00:28:45 2011
%%BoundingBox: 0 0 90 92
%Magnification: 1.0000
%%EndComments
%%BeginProlog
/$F2psDict 200 dict def
$F2psDict begin
$F2psDict /mtrx matrix put
/col-1 {0 setgray} bind def
/col0 {0.000 0.000 0.000 srgb} bind def
/col1 {0.000 0.000 1.000 srgb} bind def
/col2 {0.000 1.000 0.000 srgb} bind def
/col3 {0.000 1.000 1.000 srgb} bind def
/col4 {1.000 0.000 0.000 srgb} bind def
/col5 {1.000 0.000 1.000 srgb} bind def
/col6 {1.000 1.000 0.000 srgb} bind def
/col7 {1.000 1.000 1.000 srgb} bind def
/col8 {0.000 0.000 0.560 srgb} bind def
/col9 {0.000 0.000 0.690 srgb} bind def
/col10 {0.000 0.000 0.820 srgb} bind def
/col11 {0.530 0.810 1.000 srgb} bind def
/col12 {0.000 0.560 0.000 srgb} bind def
/col13 {0.000 0.690 0.000 srgb} bind def
/col14 {0.000 0.820 0.000 srgb} bind def
/col15 {0.000 0.560 0.560 srgb} bind def
/col16 {0.000 0.690 0.690 srgb} bind def
/col17 {0.000 0.820 0.820 srgb} bind def
/col18 {0.560 0.000 0.000 srgb} bind def
/col19 {0.690 0.000 0.000 srgb} bind def
/col20 {0.820 0.000 0.000 srgb} bind def
/col21 {0.560 0.000 0.560 srgb} bind def
/col22 {0.690 0.000 0.690 srgb} bind def
/col23 {0.820 0.000 0.820 srgb} bind def
/col24 {0.500 0.190 0.000 srgb} bind def
/col25 {0.630 0.250 0.000 srgb} bind def
/col26 {0.750 0.380 0.000 srgb} bind def
/col27 {1.000 0.500 0.500 srgb} bind def
/col28 {1.000 0.630 0.630 srgb} bind def
/col29 {1.000 0.750 0.750 srgb} bind def
/col30 {1.000 0.880 0.880 srgb} bind def
/col31 {1.000 0.840 0.000 srgb} bind def

end

/cp {closepath} bind def
/ef {eofill} bind def
/gr {grestore} bind def
/gs {gsave} bind def
/sa {save} bind def
/rs {restore} bind def
/l {lineto} bind def
/m {moveto} bind def
/rm {rmoveto} bind def
/n {newpath} bind def
/s {stroke} bind def
/sh {show} bind def
/slc {setlinecap} bind def
/slj {setlinejoin} bind def
/slw {setlinewidth} bind def
/srgb {setrgbcolor} bind def
/rot {rotate} bind def
/sc {scale} bind def
/sd {setdash} bind def
/ff {findfont} bind def
/sf {setfont} bind def
/scf {scalefont} bind def
/sw {stringwidth} bind def
/tr {translate} bind def
/tnt {dup dup currentrgbcolor
  4 -2 roll dup 1 exch sub 3 -1 roll mul add
  4 -2 roll dup 1 exch sub 3 -1 roll mul add
  4 -2 roll dup 1 exch sub 3 -1 roll mul add srgb}
  bind def
/shd {dup dup currentrgbcolor 4 -2 roll mul 4 -2 roll mul
  4 -2 roll mul srgb} bind def
 /DrawEllipse {
	/endangle exch def
	/startangle exch def
	/yrad exch def
	/xrad exch def
	/y exch def
	/x exch def
	/savematrix mtrx currentmatrix def
	x y tr xrad yrad sc 0 0 1 startangle endangle arc
	closepath
	savematrix setmatrix
	} def

/$F2psBegin {$F2psDict begin /$F2psEnteredState save def} def
/$F2psEnd {$F2psEnteredState restore end} def

/pageheader {
save
newpath 0 92 moveto 0 0 lineto 90 0 lineto 90 92 lineto closepath clip newpath
-311.1 304.1 translate
1 -1 scale
$F2psBegin
10 setmiterlimit
0 slj 0 slc
 0.06299 0.06299 sc
} bind def
/pagefooter {
$F2psEnd
restore
} bind def
%%EndProlog
pageheader
%
% Fig objects follow
%
% 
% here starts figure with depth 67
% Polyline
0 slj
0 slc
7.500 slw
n 5100 4455 m 4995 4455 4995 4710 105 arcto 4 {pop} repeat
  4995 4815 6240 4815 105 arcto 4 {pop} repeat
  6345 4815 6345 4560 105 arcto 4 {pop} repeat
  6345 4455 5100 4455 105 arcto 4 {pop} repeat
 cp gs 0.00 setgray ef gr gs col0 s gr 
% here ends figure;
% 
% here starts figure with depth 62
% Polyline
0 slj
0 slc
7.500 slw
n 5055 4365 m 4950 4365 4950 4620 105 arcto 4 {pop} repeat
  4950 4725 6195 4725 105 arcto 4 {pop} repeat
  6300 4725 6300 4470 105 arcto 4 {pop} repeat
  6300 4365 5055 4365 105 arcto 4 {pop} repeat
 cp gs col3 1.00 shd ef gr gs col0 s gr 
% here ends figure;
% 
% here starts figure with depth 52
% Ellipse
7.500 slw
n 5805 4320 135 135 0 360 DrawEllipse gs col7 1.00 shd ef gr gs col7 s gr

/Symbol ff 952.50 scf sf
5265 4545 m
gs 1 -1 sc (t) col7 sh gr
% here ends figure;
% 
% here starts figure with depth 50
% Ellipse
7.500 slw
n 5805 4320 90 90 0 360 DrawEllipse gs 0.00 setgray ef gr gs col0 s gr

% Polyline
0 slj
0 slc
0.000 slw
n 4950 3375 m
 6300 3375 l 
/Symbol ff 873.13 scf sf
5265 4500 m
gs 1 -1 sc (t) col0 sh gr
% here ends figure;
pagefooter
showpage
%%Trailer
%EOF
